Chapter 5 利用R語言進行探索性資料分析 | R語言課程講義
…
1.4 根據以上資料，說明中每個Variable的範圍與意義

檢查與修正資料中的錯誤

原始資料中通常會發生多餘、缺少或誤植等可能的錯誤。在這個步驟中，盡可發去發掘可能的錯誤，然後設法修正。

2.1 資料是否有重複？同一日期同一偵測站應只有一筆Observation，列出重複的資料

## # A tibble: 77 x 3
## # Groups:   MonitorDate [2]
##    MonitorDate SiteName count
##    <chr>       <chr>    <int>
##  1 2018-07-18  二林         2
##  2 2018-07-18  三重         2
##  3 2018-07-18  三義         2
##  4 2018-07-18  土城         2
##  5 2018-07-18  士林         2
##  6 2018-07-18  大同         2
##  7 2018-07-18  大里         2
##  8 2018-07-18  大園         2
##  9 2018-07-18  大寮         2
## 10 2018-07-18  小港         2
## # ... with 67 more rows
…
