Chapter 7 利用R語言進行非監督式機器學習 | R語言課程講義
…
是否有異常值(outliers)？

7.2.4 產生站點資料特徵

站點資料特徵便是用來一組描述站點特性的資料。

首先計算每個站點每天平均進出站人數，以便接下來找出主要的車站

df %>%
  group_by(staName) %>%
  summarise(In=mean(gateInComingCnt, trim=0.05), Out=mean(gateOutGoingCnt, trim=0.05)) %>%
  ungroup() %>%
  arrange(desc(In))

## # A tibble: 238 x 3
##    staName     In    Out
##    <chr>    <dbl>  <dbl>
##  1 臺北    63944. 63210.
##  2 桃園    27568. 28571.
##  3 中壢    26321. 26439.
##  4 臺南    25743. 25904.
##  5 臺中    25521. 24451.
##  6 板橋    21314. 21384.
##  7 新竹    20112. 20408.
##  8 花蓮    16934. 15926.
##  9 高雄    16856. 16939.
## 10 松山    16807. 16851.
## # ... with 228 more rows
…
